{"count":324,"next":"https://ll.thespacedevs.com/2.0.0/launch/upcoming/?limit=10&offset=10","previous":null,"results":[{"id":"4ed83998-e8bc-4e53-9e07-1ae931ae712f","url":"https://ll.thespacedevs.com/2.0.0/launch/4ed83998-e8bc-4e53-9e07-1ae931ae712f/","launch_library_id":null,"slug":"falcon-9-block-5-sda-tranche-1-transport-layer-b","name":"Falcon 9 Block 5 | SDA Tranche 1 Transport Layer B","status":{"id":3,"name":"Success"},"net":"2025-09-10T14:12:11Z","window_end":"2025-09-10T14:27:00Z","window_start":"2025-09-10T14:12:00Z","inhold":false,"tbdtime":false,"tbddate":false,"probability":100,"holdreason":"","failreason":"","hashtag":null,"launch_service_provider":{"id":121,"url":"https://ll.thespacedevs.com/2.0.0/agencies/121/","name":"SpaceX","type":"Commercial"},"rocket":{"id":7892,"configuration":{"id":164,"launch_library_id":188,"url":"https://ll.thespacedevs.com/2.0.0/config/launcher/164/","name":"Falcon 9","family":"Falcon","full_name":"Falcon 9 Block 5","variant":"Block 5"}},"mission":{"id":6401,"launch_library_id":null,"name":"SDA Tranche 1 Transport Layer B","description":"Tranche 1 Transport Layer B is one of six missions by the United States Space Force Space Development Agency (SDA) for the Proliferated Warfighter Space Architecture (PWSA) Tranche 1 Transport Layer constellation, which will provide assured, resilient, low-latency military data and connectivity worldwide to the full range of warfighter platforms from Low Earth Orbit satellites.\r\n\r\nThe constellation will be interconnected with Optical Inter-Satellite Links (OISLs) which have significantly increased performance over existing radio frequency crosslinks. It is expected to operate over Ka band, have stereo coverage and be dynamically networked for simpler hand-offs, greater bandwidth and fault tolerance.\r\n\r\nThis launch carries 21 satellites manufactured by York Space Systems.","launch_designator":null,"type":"Government/Top Secret","orbit":{"id":13,"name":"Polar Orbit","abbrev":"PO"}},"pad":{"id":16,"url":"https://ll.thespacedevs.com/2.0.0/pad/16/","agency_id":null,"name":"Space Launch Complex 4E","info_url":null,"wiki_url":"https://en.wikipedia.org/wiki/Vandenberg_Space_Launch_Complex_4#SLC-4E","map_url":"https://www.google.com/maps?q=34.632,-120.611","latitude":"34.632","longitude":"-120.611","location":{"id":11,"url":"https://ll.thespacedevs.com/2.0.0/location/11/","name":"Vandenberg SFB, CA, USA","country_code":"USA","map_image":"https://thespacedevs-prod.nyc3.digitaloceanspaces.com/media/map_images/location_11_20200803142416.jpg","total_launch_count":829,"total_landing_count":28},"map_image":"https://thespacedevs-prod.nyc3.digitaloceanspaces.com/media/map_images/pad_16_20200803143532.jpg","total_launch_count":215},"webcast_live":false,"image":"https://thespacedevs-prod.nyc3.digitaloceanspaces.com/media/images/falcon_9_on_slc_image_20250910140450.jpeg","infographic":null,"program":[]},{"id":"d4813e5c-305e-4401-ba4f-917aa1aaceae","url":"https://ll.thespacedevs.com/2.0.0/launch/d4813e5c-305e-4401-ba4f-917aa1aaceae/","launch_library_id":null,"slug":"soyuz-21a-progress-ms-32-93p","name":"Soyuz 2.1a | Progress MS-32 (93P)","status":{"id":1,"name":"Go"},"net":"2025-09-11T15:54:06Z","window_end":"2025-09-11T15:54:06Z","window_start":"2025-09-11T15:54:06Z","inhold":false,"tbdtime":false,"tbddate":false,"probability":null,"holdreason":"","failreason":"","hashtag":null,"launch_service_provider":{"id":63,"url":"https://ll.thespacedevs.com/2.0.0/agencies/63/","name":"Russian Federal Space Agency (ROSCOSMOS)","type":"Government"},"rocket":{"id":8430,"configuration":{"id":24,"launch_library_id":49,"url":"https://ll.thespacedevs.com/2.0.0/config/launcher/24/","name":"Soyuz 2.1a","family":"Soyuz","full_name":"Soyuz 2.1a","variant":""}},"mission":{"id":7019,"launch_library_id":null,"name":"Progress MS-32 (93P)","description":"Progress resupply mission to the International Space Station.","launch_designator":null,"type":"Resupply","orbit":{"id":8,"name":"Low Earth Orbit","abbrev":"LEO"}},"pad":{"id":20,"url":"https://ll.thespacedevs.com/2.0.0/pad/20/","agency_id":null,"name":"31/6","info_url":null,"wiki_url":"https://en.wikipedia.org/wiki/Baikonur_Cosmodrome_Site_31","map_url":"https://www.google.com/maps?q=45.996034,63.564003","latitude":"45.996034","longitude":"63.564003","location":{"id":15,"url":"https://ll.thespacedevs.com/2.0.0/location/15/","name":"Baikonur Cosmodrome, Republic of Kazakhstan","country_code":"KAZ","map_image":"https://thespacedevs-prod.nyc3.digitaloceanspaces.com/media/map_images/location_15_20200803142517.jpg","total_launch_count":1557,"total_landing_count":0},"map_image":"https://thespacedevs-prod.nyc3.digitaloceanspaces.com/media/map_images/pad_20_20200803143516.jpg","total_launch_count":424},"webcast_live":false,"image":"https://thespacedevs-prod.nyc3.digitaloceanspaces.com/media/images/soyuz_2.1a_image_20230805184309.jpg","infographic":null,"program":[{"id":17,"url":"https://ll.thespacedevs.com/2.0.0/program/17/","name":"International Space Station","description":"The International Space Station programme is tied together by a complex set of legal, political and financial agreements between the sixteen nations involved in the project, governing ownership of the various components, rights to crewing and utilization, and responsibilities for crew rotation and resupply of the International Space Station. It was conceived in 1984 by President Ronald Reagan, during the Space Station Freedom project as it was originally called.","agencies":[{"id":16,"url":"https://ll.thespacedevs.com/2.0.0/agencies/16/","name":"Canadian Space Agency","type":"Government"},{"id":27,"url":"https://ll.thespacedevs.com/2.0.0/agencies/27/","name":"European Space Agency","type":"Multinational"},{"id":37,"url":"https://ll.thespacedevs.com/2.0.0/agencies/37/","name":"Japan Aerospace Exploration Agency","type":"Government"},{"id":44,"url":"https://ll.thespacedevs.com/2.0.0/agencies/44/","name":"National Aeronautics and Space Administration","type":"Government"},{"id":63,"url":"https://ll.thespacedevs.com/2.0.0/agencies/63/","name":"Russian Federal Space Agency (ROSCOSMOS)","type":"Government"}],"image_url":"https://thespacedevs-prod.nyc3.digitaloceanspaces.com/media/images/international2_program_20201129184745.png","start_date":"1998-11-20T06:40:00Z","end_date":null,"info_url":"https://www.nasa.gov/mission_pages/station/main/index.html","wiki_url":"https://en.wikipedia.org/wiki/International_Space_Station_programme"}]},{"id":"84a2a107-1e44-4994-ad9f-430ee81a741a","url":"https://ll.thespacedevs.com/2.0.0/launch/84a2a107-1e44-4994-ad9f-430ee81a741a/","launch_library_id":null,"slug":"falcon-9-block-5-nusantara-lima","name":"Falcon 9 Block 5 | Nusantara Lima","status":{"id":1,"name":"Go"},"net":"2025-09-11T23:59:00Z","window_end":"2025-09-12T01:56:00Z","window_start":"2025-09-11T23:59:00Z","inhold":false,"tbdtime":false,"tbddate":false,"probability":45,"holdreason":"","failreason":"","hashtag":null,"launch_service_provider":{"id":121,"url":"https://ll.thespacedevs.com/2.0.0/agencies/121/","name":"SpaceX","type":"Commercial"},"rocket":{"id":7545,"configuration":{"id":164,"launch_library_id":188,"url":"https://ll.thespacedevs.com/2.0.0/config/launcher/164/","name":"Falcon 9","family":"Falcon","full_name":"Falcon 9 Block 5","variant":"Block 5"}},"mission":{"id":5972,"launch_library_id":null,"name":"Nusantara Lima","description":"Nusantara Lima is an Indonesian geostationary communications satellite with a capacity of more than 160 Gbps.","launch_designator":null,"type":"Communications","orbit":{"id":2,"name":"Geostationary Transfer Orbit","abbrev":"GTO"}},"pad":{"id":80,"url":"https://ll.thespacedevs.com/2.0.0/pad/80/","agency_id":121,"name":"Space Launch Complex 40","info_url":null,"wiki_url":"https://en.wikipedia.org/wiki/Cape_Canaveral_Air_Force_Station_Space_Launch_Complex_40","map_url":"https://www.google.com/maps?q=28.56194122,-80.57735736","latitude":"28.56194122","longitude":"-80.57735736","location":{"id":12,"url":"https://ll.thespacedevs.com/2.0.0/location/12/","name":"Cape Canaveral SFS, FL, USA","country_code":"USA","map_image":"https://thespacedevs-prod.nyc3.digitaloceanspaces.com/media/map_images/location_12_20200803142519.jpg","total_launch_count":1050,"total_landing_count":67},"map_image":"https://thespacedevs-prod.nyc3.digitaloceanspaces.com/media/map_images/pad_80_20200803143323.jpg","total_launch_count":332},"webcast_live":false,"image":"https://thespacedevs-prod.nyc3.digitaloceanspaces.com/media/images/falcon_9_image_20230807133459.jpeg","infographic":null,"program":[]},{"id":"c5c59136-3554-45e7-9583-9d5611bed7b4","url":"https://ll.thespacedevs.com/2.0.0/launch/c5c59136-3554-45e7-9583-9d5611bed7b4/","launch_library_id":null,"slug":"soyuz-21bfregat-glonass-k1-no-18","name":"Soyuz 2.1b/Fregat | Glonass-K1 No. 18","status":{"id":1,"name":"Go"},"net":"2025-09-13T02:30:00Z","window_end":"2025-09-13T03:30:00Z","window_start":"2025-09-13T02:30:00Z","inhold":false,"tbdtime":true,"tbddate":false,"probability":null,"holdreason":"","failreason":"","hashtag":null,"launch_service_provider":{"id":193,"url":"https://ll.thespacedevs.com/2.0.0/agencies/193/","name":"Russian Space Forces","type":"Government"},"rocket":{"id":8147,"configuration":{"id":42,"launch_library_id":65,"url":"https://ll.thespacedevs.com/2.0.0/config/launcher/42/","name":"Soyuz 2.1b/Fregat","family":"Soyuz","full_name":"Soyuz 2.1b Fregat","variant":"Fregat"}},"mission":{"id":6706,"launch_library_id":null,"name":"Glonass-K1 No. 18","description":"Glonass-K are the third generation of satellite design for GLONASS satellite navigation system. GLONASS is a Russian space-based navigation system comparable to the similar GPS and Galileo systems. This generation improves on accuracy, power consumption and design life. Each satellite is unpressurized and weighs 935 kg,  and has an operational lifetime of 10 years.","launch_designator":null,"type":"Navigation","orbit":{"id":12,"name":"Medium Earth Orbit","abbrev":"MEO"}},"pad":{"id":48,"url":"https://ll.thespacedevs.com/2.0.0/pad/48/","agency_id":163,"name":"Unknown Pad","info_url":null,"wiki_url":"https://en.wikipedia.org/wiki/Plesetsk_Cosmodrome","map_url":"https://www.google.com/maps?q=62.925556,40.577778","latitude":"62.925556","longitude":"40.577778","location":{"id":6,"url":"https://ll.thespacedevs.com/2.0.0/location/6/","name":"Plesetsk Cosmodrome, Russian Federation","country_code":"RUS","map_image":"https://thespacedevs-prod.nyc3.digitaloceanspaces.com/media/map_images/location_6_20200803142434.jpg","total_launch_count":1677,"total_landing_count":0},"map_image":"https://thespacedevs-prod.nyc3.digitaloceanspaces.com/media/map_images/pad_48_20200803143459.jpg","total_launch_count":0},"webcast_live":false,"image":"https://thespacedevs-prod.nyc3.digitaloceanspaces.com/media/images/soyuz_2.1b_image_20230802085331.jpg","infographic":null,"program":[]},{"id":"08fbd641-9f53-4fc8-88be-41fe7c115123","url":"https://ll.thespacedevs.com/2.0.0/launch/08fbd641-9f53-4fc8-88be-41fe7c115123/","launch_library_id":null,"slug":"falcon-9-block-5-starlink-group-17-10","name":"Falcon 9 Block 5 | Starlink Group 17-10","status":{"id":1,"name":"Go"},"net":"2025-09-13T15:41:00Z","window_end":"2025-09-13T19:41:00Z","window_start":"2025-09-13T15:41:00Z","inhold":false,"tbdtime":false,"tbddate":false,"probability":null,"holdreason":"","failreason":"","hashtag":null,"launch_service_provider":{"id":121,"url":"https://ll.thespacedevs.com/2.0.0/agencies/121/","name":"SpaceX","type":"Commercial"},"rocket":{"id":8693,"configuration":{"id":164,"launch_library_id":188,"url":"https://ll.thespacedevs.com/2.0.0/config/launcher/164/","name":"Falcon 9","family":"Falcon","full_name":"Falcon 9 Block 5","variant":"Block 5"}},"mission":{"id":7293,"launch_library_id":null,"name":"Starlink Group 17-10","description":"A batch of 24 satellites for the Starlink mega-constellation - SpaceX's project for space-based Internet communication system.","launch_designator":null,"type":"Communications","orbit":{"id":8,"name":"Low Earth Orbit","abbrev":"LEO"}},"pad":{"id":16,"url":"https://ll.thespacedevs.com/2.0.0/pad/16/","agency_id":null,"name":"Space Launch Complex 4E","info_url":null,"wiki_url":"https://en.wikipedia.org/wiki/Vandenberg_Space_Launch_Complex_4#SLC-4E","map_url":"https://www.google.com/maps?q=34.632,-120.611","latitude":"34.632","longitude":"-120.611","location":{"id":11,"url":"https://ll.thespacedevs.com/2.0.0/location/11/","name":"Vandenberg SFB, CA, USA","country_code":"USA","map_image":"https://thespacedevs-prod.nyc3.digitaloceanspaces.com/media/map_images/location_11_20200803142416.jpg","total_launch_count":829,"total_landing_count":28},"map_image":"https://thespacedevs-prod.nyc3.digitaloceanspaces.com/media/map_images/pad_16_20200803143532.jpg","total_launch_count":215},"webcast_live":false,"image":"https://thespacedevs-prod.nyc3.digitaloceanspaces.com/media/images/falcon2520925_image_20221009234147.png","infographic":null,"program":[]},{"id":"3bfed6d5-d65e-4133-b51a-b664bbd9d006","url":"https://ll.thespacedevs.com/2.0.0/launch/3bfed6d5-d65e-4133-b51a-b664bbd9d006/","launch_library_id":null,"slug":"falcon-9-block-5-cygnus-crs-2-ng-23","name":"Falcon 9 Block 5 | Cygnus CRS-2 NG-23","status":{"id":1,"name":"Go"},"net":"2025-09-14T22:11:49Z","window_end":"2025-09-14T22:11:49Z","window_start":"2025-09-14T22:11:49Z","inhold":false,"tbdtime":false,"tbddate":false,"probability":null,"holdreason":"","failreason":"","hashtag":null,"launch_service_provider":{"id":121,"url":"https://ll.thespacedevs.com/2.0.0/agencies/121/","name":"SpaceX","type":"Commercial"},"rocket":{"id":7752,"configuration":{"id":164,"launch_library_id":188,"url":"https://ll.thespacedevs.com/2.0.0/config/launcher/164/","name":"Falcon 9","family":"Falcon","full_name":"Falcon 9 Block 5","variant":"Block 5"}},"mission":{"id":6270,"launch_library_id":null,"name":"Cygnus CRS-2 NG-23","description":"This is the 23rd flight of the Northrop Grumman's uncrewed resupply spacecraft Cygnus and its 22nd flight to the International Space Station under the Commercial Resupply Services contract with NASA.","launch_designator":null,"type":"Resupply","orbit":{"id":8,"name":"Low Earth Orbit","abbrev":"LEO"}},"pad":{"id":80,"url":"https://ll.thespacedevs.com/2.0.0/pad/80/","agency_id":121,"name":"Space Launch Complex 40","info_url":null,"wiki_url":"https://en.wikipedia.org/wiki/Cape_Canaveral_Air_Force_Station_Space_Launch_Complex_40","map_url":"https://www.google.com/maps?q=28.56194122,-80.57735736","latitude":"28.56194122","longitude":"-80.57735736","location":{"id":12,"url":"https://ll.thespacedevs.com/2.0.0/location/12/","name":"Cape Canaveral SFS, FL, USA","country_code":"USA","map_image":"https://thespacedevs-prod.nyc3.digitaloceanspaces.com/media/map_images/location_12_20200803142519.jpg","total_launch_count":1050,"total_landing_count":67},"map_image":"https://thespacedevs-prod.nyc3.digitaloceanspaces.com/media/map_images/pad_80_20200803143323.jpg","total_launch_count":332},"webcast_live":false,"image":"https://thespacedevs-prod.nyc3.digitaloceanspaces.com/media/images/falcon_9_image_20230807133459.jpeg","infographic":null,"program":[{"id":11,"url":"https://ll.thespacedevs.com/2.0.0/program/11/","name":"Commercial Resupply Services","description":"Commercial Resupply Services (CRS) are a series of flights awarded by NASA for the delivery of cargo and supplies to the International Space Station.The first CRS contracts were signed in 2008 and awarded $1.6 billion to SpaceX for twelve cargo Dragon and $1.9 billion to Orbital Sciences for eight Cygnus flights, covering deliveries to 2016. The Falcon 9 and Antares rockets were also developed under the CRS program to deliver cargo spacecraft to the ISS.","agencies":[{"id":44,"url":"https://ll.thespacedevs.com/2.0.0/agencies/44/","name":"National Aeronautics and Space Administration","type":"Government"},{"id":257,"url":"https://ll.thespacedevs.com/2.0.0/agencies/257/","name":"Northrop Grumman Space Systems","type":"Commercial"},{"id":1020,"url":"https://ll.thespacedevs.com/2.0.0/agencies/1020/","name":"Sierra Nevada Corporation","type":"Commercial"},{"id":121,"url":"https://ll.thespacedevs.com/2.0.0/agencies/121/","name":"SpaceX","type":"Commercial"}],"image_url":"https://thespacedevs-prod.nyc3.digitaloceanspaces.com/media/images/commercial2520_program_20201129212219.png","start_date":"2008-12-23T00:00:00Z","end_date":null,"info_url":null,"wiki_url":"https://en.wikipedia.org/wiki/Commercial_Resupply_Services#Commercial_Resupply_Services"},{"id":17,"url":"https://ll.thespacedevs.com/2.0.0/program/17/","name":"International Space Station","description":"The International Space Station programme is tied together by a complex set of legal, political and financial agreements between the sixteen nations involved in the project, governing ownership of the various components, rights to crewing and utilization, and responsibilities for crew rotation and resupply of the International Space Station. It was conceived in 1984 by President Ronald Reagan, during the Space Station Freedom project as it was originally called.","agencies":[{"id":16,"url":"https://ll.thespacedevs.com/2.0.0/agencies/16/","name":"Canadian Space Agency","type":"Government"},{"id":27,"url":"https://ll.thespacedevs.com/2.0.0/agencies/27/","name":"European Space Agency","type":"Multinational"},{"id":37,"url":"https://ll.thespacedevs.com/2.0.0/agencies/37/","name":"Japan Aerospace Exploration Agency","type":"Government"},{"id":44,"url":"https://ll.thespacedevs.com/2.0.0/agencies/44/","name":"National Aeronautics and Space Administration","type":"Government"},{"id":63,"url":"https://ll.thespacedevs.com/2.0.0/agencies/63/","name":"Russian Federal Space Agency (ROSCOSMOS)","type":"Government"}],"image_url":"https://thespacedevs-prod.nyc3.digitaloceanspaces.com/media/images/international2_program_20201129184745.png","start_date":"1998-11-20T06:40:00Z","end_date":null,"info_url":"https://www.nasa.gov/mission_pages/station/main/index.html","wiki_url":"https://en.wikipedia.org/wiki/International_Space_Station_programme"}]},{"id":"57b5b880-7892-42b1-a327-1c919c033cb6","url":"https://ll.thespacedevs.com/2.0.0/launch/57b5b880-7892-42b1-a327-1c919c033cb6/","launch_library_id":null,"slug":"long-march-2cyz-1s-unknown-payload","name":"Long March 2C/YZ-1S | Unknown Payload","status":{"id":1,"name":"Go"},"net":"2025-09-15T01:20:00Z","window_end":"2025-09-15T01:43:00Z","window_start":"2025-09-15T01:15:00Z","inhold":false,"tbdtime":true,"tbddate":false,"probability":null,"holdreason":"","failreason":"","hashtag":null,"launch_service_provider":{"id":88,"url":"https://ll.thespacedevs.com/2.0.0/agencies/88/","name":"China Aerospace Science and Technology Corporation","type":"Government"},"rocket":{"id":8705,"configuration":{"id":156,"launch_library_id":192,"url":"https://ll.thespacedevs.com/2.0.0/config/launcher/156/","name":"Long March 2C/YZ-1S","family":"Long March","full_name":"Long March 2C/YZ-1S","variant":"C/YZ-1S"}},"mission":{"id":7298,"launch_library_id":null,"name":"Unknown Payload","description":"Details TBD.","launch_designator":null,"type":"Unknown","orbit":{"id":25,"name":"Unknown","abbrev":"N/A"}},"pad":{"id":22,"url":"https://ll.thespacedevs.com/2.0.0/pad/22/","agency_id":null,"name":"Launch Area 4 (SLS-2 / 603)","info_url":null,"wiki_url":"https://en.wikipedia.org/wiki/Jiuquan_Launch_Area_4","map_url":"https://www.google.com/maps?q=40.960482,100.298059","latitude":"40.960482","longitude":"100.298059","location":{"id":17,"url":"https://ll.thespacedevs.com/2.0.0/location/17/","name":"Jiuquan Satellite Launch Center, People's Republic of China","country_code":"CHN","map_image":"https://thespacedevs-prod.nyc3.digitaloceanspaces.com/media/map_images/location_17_20200803142429.jpg","total_launch_count":257,"total_landing_count":0},"map_image":"https://thespacedevs-prod.nyc3.digitaloceanspaces.com/media/map_images/pad_22_20200803143437.jpg","total_launch_count":126},"webcast_live":false,"image":"https://thespacedevs-prod.nyc3.digitaloceanspaces.com/media/images/long_march_2c-i_image_20210908194304.jpeg","infographic":null,"program":[]},{"id":"64b19cd9-9b2a-4724-890b-6a7001eb3644","url":"https://ll.thespacedevs.com/2.0.0/launch/64b19cd9-9b2a-4724-890b-6a7001eb3644/","launch_library_id":null,"slug":"falcon-9-block-5-starlink-group-17-12","name":"Falcon 9 Block 5 | Starlink Group 17-12","status":{"id":1,"name":"Go"},"net":"2025-09-17T15:41:00Z","window_end":"2025-09-17T19:41:00Z","window_start":"2025-09-17T15:41:00Z","inhold":false,"tbdtime":false,"tbddate":false,"probability":null,"holdreason":"","failreason":"","hashtag":null,"launch_service_provider":{"id":121,"url":"https://ll.thespacedevs.com/2.0.0/agencies/121/","name":"SpaceX","type":"Commercial"},"rocket":{"id":8704,"configuration":{"id":164,"launch_library_id":188,"url":"https://ll.thespacedevs.com/2.0.0/config/launcher/164/","name":"Falcon 9","family":"Falcon","full_name":"Falcon 9 Block 5","variant":"Block 5"}},"mission":{"id":7297,"launch_library_id":null,"name":"Starlink Group 17-12","description":"A batch of 24 satellites for the Starlink mega-constellation - SpaceX's project for space-based Internet communication system.","launch_designator":null,"type":"Communications","orbit":{"id":8,"name":"Low Earth Orbit","abbrev":"LEO"}},"pad":{"id":16,"url":"https://ll.thespacedevs.com/2.0.0/pad/16/","agency_id":null,"name":"Space Launch Complex 4E","info_url":null,"wiki_url":"https://en.wikipedia.org/wiki/Vandenberg_Space_Launch_Complex_4#SLC-4E","map_url":"https://www.google.com/maps?q=34.632,-120.611","latitude":"34.632","longitude":"-120.611","location":{"id":11,"url":"https://ll.thespacedevs.com/2.0.0/location/11/","name":"Vandenberg SFB, CA, USA","country_code":"USA","map_image":"https://thespacedevs-prod.nyc3.digitaloceanspaces.com/media/map_images/location_11_20200803142416.jpg","total_launch_count":829,"total_landing_count":28},"map_image":"https://thespacedevs-prod.nyc3.digitaloceanspaces.com/media/map_images/pad_16_20200803143532.jpg","total_launch_count":215},"webcast_live":false,"image":"https://thespacedevs-prod.nyc3.digitaloceanspaces.com/media/images/falcon2520925_image_20221009234147.png","infographic":null,"program":[]},{"id":"09678f8e-d3e5-4e26-87c1-d9b9141c1f61","url":"https://ll.thespacedevs.com/2.0.0/launch/09678f8e-d3e5-4e26-87c1-d9b9141c1f61/","launch_library_id":null,"slug":"falcon-9-block-5-starlink-group-10-61","name":"Falcon 9 Block 5 | Starlink Group 10-61","status":{"id":1,"name":"Go"},"net":"2025-09-18T09:30:00Z","window_end":"2025-09-18T13:30:00Z","window_start":"2025-09-18T09:30:00Z","inhold":false,"tbdtime":false,"tbddate":false,"probability":null,"holdreason":"","failreason":"","hashtag":null,"launch_service_provider":{"id":121,"url":"https://ll.thespacedevs.com/2.0.0/agencies/121/","name":"SpaceX","type":"Commercial"},"rocket":{"id":8706,"configuration":{"id":164,"launch_library_id":188,"url":"https://ll.thespacedevs.com/2.0.0/config/launcher/164/","name":"Falcon 9","family":"Falcon","full_name":"Falcon 9 Block 5","variant":"Block 5"}},"mission":{"id":7299,"launch_library_id":null,"name":"Starlink Group 10-61","description":"A batch of 28 satellites for the Starlink mega-constellation - SpaceX's project for space-based Internet communication system.","launch_designator":null,"type":"Communications","orbit":{"id":8,"name":"Low Earth Orbit","abbrev":"LEO"}},"pad":{"id":80,"url":"https://ll.thespacedevs.com/2.0.0/pad/80/","agency_id":121,"name":"Space Launch Complex 40","info_url":null,"wiki_url":"https://en.wikipedia.org/wiki/Cape_Canaveral_Air_Force_Station_Space_Launch_Complex_40","map_url":"https://www.google.com/maps?q=28.56194122,-80.57735736","latitude":"28.56194122","longitude":"-80.57735736","location":{"id":12,"url":"https://ll.thespacedevs.com/2.0.0/location/12/","name":"Cape Canaveral SFS, FL, USA","country_code":"USA","map_image":"https://thespacedevs-prod.nyc3.digitaloceanspaces.com/media/map_images/location_12_20200803142519.jpg","total_launch_count":1050,"total_landing_count":67},"map_image":"https://thespacedevs-prod.nyc3.digitaloceanspaces.com/media/map_images/pad_80_20200803143323.jpg","total_launch_count":332},"webcast_live":false,"image":"https://thespacedevs-prod.nyc3.digitaloceanspaces.com/media/images/falcon2520925_image_20221009234147.png","infographic":null,"program":[{"id":25,"url":"https://ll.thespacedevs.com/2.0.0/program/25/","name":"Starlink","description":"Starlink is a satellite internet constellation operated by American aerospace company SpaceX","agencies":[{"id":121,"url":"https://ll.thespacedevs.com/2.0.0/agencies/121/","name":"SpaceX","type":"Commercial"}],"image_url":"https://thespacedevs-prod.nyc3.digitaloceanspaces.com/media/images/starlink_program_20231228154508.jpeg","start_date":"2018-02-22T14:17:00Z","end_date":null,"info_url":"https://starlink.com","wiki_url":"https://en.wikipedia.org/wiki/Starlink"}]},{"id":"161ca0fe-fef2-40a3-88f8-de777c7fc895","url":"https://ll.thespacedevs.com/2.0.0/launch/161ca0fe-fef2-40a3-88f8-de777c7fc895/","launch_library_id":null,"slug":"falcon-9-block-5-starlink-group-10-27","name":"Falcon 9 Block 5 | Starlink Group 10-27","status":{"id":1,"name":"Go"},"net":"2025-09-21T09:20:00Z","window_end":"2025-09-21T13:20:00Z","window_start":"2025-09-21T09:20:00Z","inhold":false,"tbdtime":false,"tbddate":false,"probability":null,"holdreason":"","failreason":"","hashtag":null,"launch_service_provider":{"id":121,"url":"https://ll.thespacedevs.com/2.0.0/agencies/121/","name":"SpaceX","type":"Commercial"},"rocket":{"id":8707,"configuration":{"id":164,"launch_library_id":188,"url":"https://ll.thespacedevs.com/2.0.0/config/launcher/164/","name":"Falcon 9","family":"Falcon","full_name":"Falcon 9 Block 5","variant":"Block 5"}},"mission":{"id":7300,"launch_library_id":null,"name":"Starlink Group 10-27","description":"A batch of 28 satellites for the Starlink mega-constellation - SpaceX's project for space-based Internet communication system.","launch_designator":null,"type":"Communications","orbit":{"id":8,"name":"Low Earth Orbit","abbrev":"LEO"}},"pad":{"id":80,"url":"https://ll.thespacedevs.com/2.0.0/pad/80/","agency_id":121,"name":"Space Launch Complex 40","info_url":null,"wiki_url":"https://en.wikipedia.org/wiki/Cape_Canaveral_Air_Force_Station_Space_Launch_Complex_40","map_url":"https://www.google.com/maps?q=28.56194122,-80.57735736","latitude":"28.56194122","longitude":"-80.57735736","location":{"id":12,"url":"https://ll.thespacedevs.com/2.0.0/location/12/","name":"Cape Canaveral SFS, FL, USA","country_code":"USA","map_image":"https://thespacedevs-prod.nyc3.digitaloceanspaces.com/media/map_images/location_12_20200803142519.jpg","total_launch_count":1050,"total_landing_count":67},"map_image":"https://thespacedevs-prod.nyc3.digitaloceanspaces.com/media/map_images/pad_80_20200803143323.jpg","total_launch_count":332},"webcast_live":false,"image":"https://thespacedevs-prod.nyc3.digitaloceanspaces.com/media/images/falcon2520925_image_20221009234147.png","infographic":null,"program":[{"id":25,"url":"https://ll.thespacedevs.com/2.0.0/program/25/","name":"Starlink","description":"Starlink is a satellite internet constellation operated by American aerospace company SpaceX","agencies":[{"id":121,"url":"https://ll.thespacedevs.com/2.0.0/agencies/121/","name":"SpaceX","type":"Commercial"}],"image_url":"https://thespacedevs-prod.nyc3.digitaloceanspaces.com/media/images/starlink_program_20231228154508.jpeg","start_date":"2018-02-22T14:17:00Z","end_date":null,"info_url":"https://starlink.com","wiki_url":"https://en.wikipedia.org/wiki/Starlink"}]}]}